<?xml version="1.0" encoding="UTF-8" standalone="no"?>
<!-- Created with Inkscape (http://www.inkscape.org/) -->

<svg
   version="1.1"
   id="svg796"
   width="1440"
   height="960"
   viewBox="0 0 1440 960"
   sodipodi:docname="1994-01-01T12.svg"
   inkscape:version="1.2.2 (b0a84865, 2022-12-01)"
   xml:space="preserve"
   inkscape:export-filename="1994-01-01T12_area1.png"
   inkscape:export-xdpi="300"
   inkscape:export-ydpi="300"
   xmlns:inkscape="http://www.inkscape.org/namespaces/inkscape"
   xmlns:sodipodi="http://sodipodi.sourceforge.net/DTD/sodipodi-0.dtd"
   xmlns="http://www.w3.org/2000/svg"
   xmlns:svg="http://www.w3.org/2000/svg"><defs
     id="defs800" /><sodipodi:namedview
     id="namedview798"
     pagecolor="#ffffff"
     bordercolor="#000000"
     borderopacity="0.25"
     inkscape:showpageshadow="2"
     inkscape:pageopacity="0.0"
     inkscape:pagecheckerboard="0"
     inkscape:deskcolor="#d1d1d1"
     showgrid="false"
     inkscape:zoom="0.51505711"
     inkscape:cx="717.39617"
     inkscape:cy="461.11391"
     inkscape:window-width="1440"
     inkscape:window-height="847"
     inkscape:window-x="0"
     inkscape:window-y="25"
     inkscape:window-maximized="0"
     inkscape:current-layer="g802" /><g
     inkscape:groupmode="layer"
     inkscape:label="Image"
     id="g802"><rect
       style="fill:none;fill-opacity:0.300341;stroke:#000000;stroke-width:4.28093;stroke-dasharray:none;stroke-dashoffset:0;stroke-opacity:1"
       id="rect1058"
       width="88.927795"
       height="52.198906"
       x="587.5849"
       y="369.97324" /><rect
       style="fill:none;fill-opacity:0.300341;stroke:#000000;stroke-width:6;stroke-dasharray:none;stroke-dashoffset:0;stroke-opacity:1"
       id="rect1666"
       width="1440"
       height="960"
       x="0"
       y="0" /></g></svg>
